module bitbucket.org/azaher/logging

require (
	github.com/beorn7/perks v0.0.0-20180321164747-3a771d992973 // indirect
	github.com/go-kit/kit v0.7.0
	github.com/go-logfmt/logfmt v0.3.0 // indirect
	github.com/go-stack/stack v1.7.0 // indirect
	github.com/golang/protobuf v1.1.0 // indirect
	github.com/kr/logfmt v0.0.0-20140226030751-b84e30acd515 // indirect
	github.com/matttproud/golang_protobuf_extensions v1.0.1 // indirect
	github.com/prometheus/client_golang v0.8.0
	github.com/prometheus/client_model v0.0.0-20180712105110-5c3871d89910 // indirect
	github.com/prometheus/common v0.0.0-20180801064454-c7de2306084e // indirect
	github.com/prometheus/procfs v0.0.0-20180725123919-05ee40e3a273 // indirect
	golang.org/x/net v0.0.0-20180816102801-aaf60122140d // indirect
	golang.org/x/sync v0.0.0-20180314180146-1d60e4601c6f // indirect
)
